<svg xmlns="http://www.w3.org/2000/svg" width="16" height="16" viewBox="0 0 16 16">
  <defs>
    <style>
      .cls-1 {
        fill: #030504;
      }
    </style>
  </defs>
  <g id="Group_126" data-name="Group 126" transform="translate(-695.464 -533.729)">
    <path id="Path_442" data-name="Path 442" class="cls-1" d="M702.429,540.929a.791.791,0,0,0,.884.177.832.832,0,0,0,.257-.181.843.843,0,0,0,.174-.268.834.834,0,0,0,.065-.33.881.881,0,0,0-.063-.337.779.779,0,0,0-.17-.267.722.722,0,0,0-.256-.177.788.788,0,0,0-.322-.065.807.807,0,0,0-.328.065.774.774,0,0,0-.254.182.87.87,0,0,0-.165.272.916.916,0,0,0-.059.324h0a.852.852,0,0,0,.065.334A.881.881,0,0,0,702.429,540.929Z"/>
    <path id="Path_443" data-name="Path 443" class="cls-1" d="M702.993,541.856a1.016,1.016,0,0,0-.4.076.926.926,0,0,0-.321.222,1,1,0,0,0-.21.339,1.185,1.185,0,0,0-.077.429l.007,0a1.3,1.3,0,0,0,.071.441.993.993,0,0,0,.2.333.912.912,0,0,0,.319.208,1.175,1.175,0,0,0,.415.07,1.089,1.089,0,0,0,.4-.073.911.911,0,0,0,.32-.213,1,1,0,0,0,.209-.332,1.141,1.141,0,0,0,.077-.436,1.19,1.19,0,0,0-.071-.414A.966.966,0,0,0,702.993,541.856Z"/>
    <path id="Path_444" data-name="Path 444" class="cls-1" d="M703.464,533.729a8,8,0,1,0,8,8A8,8,0,0,0,703.464,533.729Zm-3.581,10.879h-.931v-4.74a3.039,3.039,0,0,1-.544.308,4.533,4.533,0,0,1-.663.223v-.8c.153-.051.307-.1.449-.161s.286-.119.426-.188.282-.148.425-.231.3-.188.445-.292l.393,0Zm4.893-.918a1.528,1.528,0,0,1-.393.539,1.789,1.789,0,0,1-.6.346,2.456,2.456,0,0,1-1.547,0,1.842,1.842,0,0,1-.605-.346,1.542,1.542,0,0,1-.4-.539,1.646,1.646,0,0,1-.141-.688,1.857,1.857,0,0,1,.063-.481,1.518,1.518,0,0,1,.187-.429,1.485,1.485,0,0,1,.313-.353,1.518,1.518,0,0,1,.438-.252,1.707,1.707,0,0,1-.594-.539,1.266,1.266,0,0,1-.221-.724,1.327,1.327,0,0,1,.13-.585,1.392,1.392,0,0,1,.362-.461,1.654,1.654,0,0,1,.543-.308,2.169,2.169,0,0,1,1.37,0,1.708,1.708,0,0,1,.545.307,1.4,1.4,0,0,1,.359.462,1.333,1.333,0,0,1,.128.583,1.246,1.246,0,0,1-.221.723,1.707,1.707,0,0,1-.585.539,1.605,1.605,0,0,1,.439.25,1.5,1.5,0,0,1,.511.779,1.765,1.765,0,0,1,.065.485A1.634,1.634,0,0,1,704.776,543.69Zm3.694-1.128v1.585h-.662v-1.585h-1.584V541.9h1.584v-1.587h.663V541.9h1.583v.66Z"/>
  </g>
</svg>
