<svg xmlns="http://www.w3.org/2000/svg" width="36.061" height="36.062" viewBox="0 0 36.061 36.062">
  <g id="Group_113" data-name="Group 113" transform="translate(-73.5 -661.452)">
    <path id="Path_349" data-name="Path 349" d="M57.069,554.775a13.9,13.9,0,0,1-8.125,5.719" transform="translate(46.14 130.693)" fill="none" stroke="#000" stroke-miterlimit="10" stroke-width="1"/>
    <path id="Path_350" data-name="Path 350" d="M58.382,542.978a14.247,14.247,0,0,1,.76,4.125,13.9,13.9,0,0,1-.5,3.695" transform="translate(46.38 130.693)" fill="none" stroke="#000" stroke-miterlimit="10" stroke-width="1"/>
    <path id="Path_351" data-name="Path 351" d="M48.586,533.624a14.731,14.731,0,0,1,7.8,5.151" transform="translate(46.14 130.693)" fill="none" stroke="#000" stroke-miterlimit="10" stroke-width="1"/>
    <path id="Path_352" data-name="Path 352" d="M33.788,539.228a15.438,15.438,0,0,1,8.253-5.629" transform="translate(46.14 130.693)" fill="none" stroke="#000" stroke-miterlimit="10" stroke-width="1"/>
    <path id="Path_353" data-name="Path 353" d="M32.069,551.088a16.059,16.059,0,0,1-.686-3.985,12.63,12.63,0,0,1,.436-3.734" transform="translate(46.14 130.693)" fill="none" stroke="#000" stroke-miterlimit="10" stroke-width="1"/>
    <path id="Path_354" data-name="Path 354" d="M41.842,560.557a13.884,13.884,0,0,1-7.607-5.025" transform="translate(46.14 130.693)" fill="none" stroke="#000" stroke-miterlimit="10" stroke-width="1"/>
    <circle id="Ellipse_19" data-name="Ellipse 19" cx="2.237" cy="2.237" r="2.237" transform="translate(89.186 675.559)" fill="none" stroke="#000" stroke-miterlimit="10" stroke-width="1"/>
    <path id="Path_392" data-name="Path 392" d="M33.974,554.752a1.054,1.054,0,0,0,1-.8l.883-3.217H27.842l.891,3.254a1.17,1.17,0,0,0,1.132.762Z" transform="translate(46.18 119.247)" fill="none" stroke="#000" stroke-linecap="round" stroke-linejoin="round" stroke-width="1"/>
    <path id="Path_395" data-name="Path 395" d="M33.951,554.752a1.052,1.052,0,0,0,1-.8l.879-3.217H27.842l.888,3.254a1.167,1.167,0,0,0,1.128.762Z" transform="translate(73.195 118.732)" fill="none" stroke="#000" stroke-linecap="round" stroke-linejoin="round" stroke-width="1"/>
    <path id="Path_396" data-name="Path 396" d="M33.951,554.767a1.053,1.053,0,0,0,1-.8l.879-3.23H27.842L28.73,554a1.168,1.168,0,0,0,1.128.765Z" transform="translate(59.688 111.216)" fill="none" stroke="#000" stroke-linecap="round" stroke-linejoin="round" stroke-width="1"/>
    <path id="Path_397" data-name="Path 397" d="M33.951,554.736a1.05,1.05,0,0,0,1-.8l.879-3.2H27.842l.888,3.241a1.166,1.166,0,0,0,1.128.759Z" transform="translate(59.688 139.232)" fill="none" stroke="#000" stroke-linecap="round" stroke-linejoin="round" stroke-width="1"/>
    <path id="Path_393" data-name="Path 393" d="M33.974,554.752a1.054,1.054,0,0,0,1-.8l.883-3.217H27.842l.891,3.254a1.17,1.17,0,0,0,1.132.762Z" transform="translate(46.164 131.232)" fill="none" stroke="#000" stroke-linecap="round" stroke-linejoin="round" stroke-width="1"/>
    <path id="Path_394" data-name="Path 394" d="M33.951,554.752a1.052,1.052,0,0,0,1-.8l.879-3.217H27.842l.888,3.254a1.167,1.167,0,0,0,1.128.762Z" transform="translate(73.18 130.716)" fill="none" stroke="#000" stroke-linecap="round" stroke-linejoin="round" stroke-width="1"/>
    <line id="Line_64" data-name="Line 64" y2="9.1" transform="translate(91.423 680.361)" fill="none" stroke="#000" stroke-linecap="round" stroke-linejoin="round" stroke-width="1"/>
    <line id="Line_65" data-name="Line 65" y2="9.342" transform="translate(91.423 665.968)" fill="none" stroke="#000" stroke-linecap="round" stroke-linejoin="round" stroke-width="1"/>
    <line id="Line_66" data-name="Line 66" x1="7.259" y2="4.014" transform="translate(82.022 678.954)" fill="none" stroke="#000" stroke-linecap="round" stroke-linejoin="round" stroke-width="1"/>
    <line id="Line_67" data-name="Line 67" x1="7.993" y2="4.672" transform="translate(93.601 671.796)" fill="none" stroke="#000" stroke-linecap="round" stroke-linejoin="round" stroke-width="1"/>
    <line id="Line_68" data-name="Line 68" x2="7.421" y2="3.997" transform="translate(93.601 678.971)" fill="none" stroke="#000" stroke-linecap="round" stroke-linejoin="round" stroke-width="1"/>
    <line id="Line_69" data-name="Line 69" x2="7.408" y2="4.559" transform="translate(82.022 671.968)" fill="none" stroke="#000" stroke-linecap="round" stroke-linejoin="round" stroke-width="1"/>
    <line id="Line_70" data-name="Line 70" x2="35.061" transform="translate(74 697)" fill="#747474" stroke="#000" stroke-linecap="round" stroke-linejoin="round" stroke-width="1"/>
    <line id="Line_71" data-name="Line 71" x1="2.678" y2="6.899" transform="translate(81.344 689.968)" fill="#747474" stroke="#000" stroke-linecap="round" stroke-linejoin="round" stroke-width="1"/>
    <line id="Line_72" data-name="Line 72" x2="2.456" y2="6.853" transform="translate(99.219 690.014)" fill="#747474" stroke="#000" stroke-linecap="round" stroke-linejoin="round" stroke-width="1"/>
  </g>
</svg>
