<?xml version="1.0" encoding="UTF-8"?>
<svg xmlns="http://www.w3.org/2000/svg" xmlns:xlink="http://www.w3.org/1999/xlink" width="128pt" height="128pt" viewBox="0 0 128 128" version="1.1">
<g id="surface1">
<path style=" stroke:none;fill-rule:nonzero;fill:rgb(0%,0%,0%);fill-opacity:1;" d="M 30.925781 1.820312 C 30.117188 2.234375 29.675781 2.675781 29.285156 3.484375 C 28.769531 4.488281 28.71875 4.90625 28.71875 8.800781 L 28.71875 13.039062 L 19.703125 13.039062 C 10.125 13.039062 9.121094 13.136719 6.867188 14.289062 C 5.445312 15 3.433594 16.984375 2.675781 18.378906 C 1.207031 21.101562 1.28125 18.039062 1.28125 69.878906 C 1.28125 121.71875 1.207031 118.660156 2.675781 121.378906 C 3.433594 122.773438 5.445312 124.757812 6.867188 125.46875 C 9.4375 126.792969 6.398438 126.71875 64 126.71875 C 122.308594 126.71875 118.660156 126.816406 121.378906 125.320312 C 122.773438 124.5625 124.757812 122.550781 125.46875 121.132812 C 126.792969 118.558594 126.71875 121.105469 126.71875 69.878906 C 126.71875 18.648438 126.792969 21.195312 125.46875 18.625 C 124.757812 17.203125 122.773438 15.195312 121.378906 14.433594 C 118.976562 13.136719 118.09375 13.039062 108.296875 13.039062 L 99.28125 13.039062 L 99.28125 8.800781 C 99.28125 4.023438 99.011719 3.042969 97.539062 1.988281 C 96.414062 1.207031 94.332031 1.179688 93.25 1.941406 C 91.660156 3.09375 91.5625 3.386719 91.488281 8.433594 L 91.390625 13.039062 L 67.917969 13.039062 L 67.917969 8.800781 C 67.917969 4.90625 67.871094 4.488281 67.378906 3.484375 C 66.765625 2.304688 65.199219 1.277344 64 1.277344 C 62.800781 1.277344 61.230469 2.304688 60.644531 3.484375 C 60.128906 4.488281 60.082031 4.902344 60.082031 8.800781 L 60.082031 13.039062 L 36.5625 13.039062 L 36.5625 8.800781 C 36.5625 4.90625 36.511719 4.488281 36.023438 3.484375 C 35.410156 2.304688 33.84375 1.277344 32.640625 1.277344 C 32.296875 1.28125 31.511719 1.523438 30.925781 1.820312 Z M 28.71875 25.117188 C 28.71875 29.015625 28.769531 29.429688 29.285156 30.4375 C 29.871094 31.613281 31.4375 32.640625 32.640625 32.640625 C 33.839844 32.640625 35.410156 31.613281 36.019531 30.4375 C 36.511719 29.429688 36.558594 29.015625 36.558594 25.117188 L 36.558594 20.878906 L 60.078125 20.878906 L 60.078125 25.117188 C 60.078125 29.015625 60.128906 29.429688 60.640625 30.4375 C 61.230469 31.613281 62.796875 32.640625 64 32.640625 C 65.199219 32.640625 66.765625 31.613281 67.355469 30.4375 C 67.871094 29.429688 67.917969 29.015625 67.917969 25.117188 L 67.917969 20.878906 L 91.386719 20.878906 L 91.488281 25.484375 C 91.558594 30.09375 91.558594 30.117188 92.222656 30.976562 C 94.007812 33.300781 97.613281 32.957031 98.785156 30.363281 C 99.203125 29.480469 99.277344 28.746094 99.277344 25.09375 L 99.277344 20.878906 L 117.210938 20.878906 L 118.042969 21.714844 L 118.875 22.546875 L 118.875 117.210938 L 118.042969 118.046875 L 117.210938 118.878906 L 10.785156 118.878906 L 9.953125 118.046875 L 9.121094 117.210938 L 9.121094 22.546875 L 9.953125 21.710938 L 10.785156 20.878906 L 28.71875 20.878906 Z M 28.71875 25.117188 "/>
<path style=" stroke:none;fill-rule:nonzero;fill:rgb(0%,0%,0%);fill-opacity:1;" d="M 28.71875 54.199219 L 28.71875 60.078125 L 44.402344 60.078125 L 44.402344 48.320312 L 28.71875 48.320312 Z M 28.71875 54.199219 "/>
<path style=" stroke:none;fill-rule:nonzero;fill:rgb(0%,0%,0%);fill-opacity:1;" d="M 56.160156 54.199219 L 56.160156 60.078125 L 71.839844 60.078125 L 71.839844 48.320312 L 56.160156 48.320312 Z M 56.160156 54.199219 "/>
<path style=" stroke:none;fill-rule:nonzero;fill:rgb(0%,0%,0%);fill-opacity:1;" d="M 83.597656 54.199219 L 83.597656 60.078125 L 99.28125 60.078125 L 99.28125 48.320312 L 83.597656 48.320312 Z M 83.597656 54.199219 "/>
<path style=" stroke:none;fill-rule:nonzero;fill:rgb(0%,0%,0%);fill-opacity:1;" d="M 28.71875 73.800781 L 28.71875 79.679688 L 44.402344 79.679688 L 44.402344 67.917969 L 28.71875 67.917969 Z M 28.71875 73.800781 "/>
<path style=" stroke:none;fill-rule:nonzero;fill:rgb(0%,0%,0%);fill-opacity:1;" d="M 56.160156 73.800781 L 56.160156 79.679688 L 71.839844 79.679688 L 71.839844 67.917969 L 56.160156 67.917969 Z M 56.160156 73.800781 "/>
<path style=" stroke:none;fill-rule:nonzero;fill:rgb(0%,0%,0%);fill-opacity:1;" d="M 83.597656 73.800781 L 83.597656 79.679688 L 99.28125 79.679688 L 99.28125 67.917969 L 83.597656 67.917969 Z M 83.597656 73.800781 "/>
<path style=" stroke:none;fill-rule:nonzero;fill:rgb(0%,0%,0%);fill-opacity:1;" d="M 28.71875 93.398438 L 28.71875 99.28125 L 44.402344 99.28125 L 44.402344 87.519531 L 28.71875 87.519531 Z M 28.71875 93.398438 "/>
<path style=" stroke:none;fill-rule:nonzero;fill:rgb(0%,0%,0%);fill-opacity:1;" d="M 56.160156 93.398438 L 56.160156 99.28125 L 71.839844 99.28125 L 71.839844 87.519531 L 56.160156 87.519531 Z M 56.160156 93.398438 "/>
<path style=" stroke:none;fill-rule:nonzero;fill:rgb(0%,0%,0%);fill-opacity:1;" d="M 83.597656 93.398438 L 83.597656 99.28125 L 99.28125 99.28125 L 99.28125 87.519531 L 83.597656 87.519531 Z M 83.597656 93.398438 "/>
</g>
</svg>
