<svg xmlns="http://www.w3.org/2000/svg" xmlns:xlink="http://www.w3.org/1999/xlink" width="26" height="26" viewBox="0 0 26 26">

  <g id="clock" class="cls-1">

    <g id="Group_102" data-name="Group 102" transform="translate(-234.264 -225.624)">
      <path id="Path_357" data-name="Path 357" class="cls-2" d="M247.137,251.624A12.829,12.829,0,0,1,234.265,239c0-.125,0-.249,0-.372a13.1,13.1,0,0,1,13-13.007h.012a13.177,13.177,0,0,1,12.991,13.038,12.969,12.969,0,0,1-12.953,12.961Zm.124-25.038a12.139,12.139,0,0,0-12.032,12.055v.35a11.852,11.852,0,0,0,11.841,11.672h.16A12.022,12.022,0,0,0,259.3,238.67,12.218,12.218,0,0,0,247.261,226.586Z" transform="translate(0)"/>
      <path id="Path_358" data-name="Path 358" class="cls-2" d="M253.914,244.624a.487.487,0,0,1-.3-.1L247.8,240a.524.524,0,0,1-.2-.413l-.036-9.445a.5.5,0,1,1,1,0l.036,9.188,5.615,4.364a.53.53,0,0,1,.1.725A.493.493,0,0,1,253.914,244.624Z" transform="translate(-0.801)"/>
    </g>
    <path id="Path_361" data-name="Path 361" class="cls-2" d="M247.137,251.624A12.829,12.829,0,0,1,234.265,239c0-.125,0-.249,0-.372a13.1,13.1,0,0,1,13-13.007h.012a13.177,13.177,0,0,1,12.991,13.038,12.969,12.969,0,0,1-12.953,12.961Zm.124-25.038a12.139,12.139,0,0,0-12.032,12.055v.35a11.852,11.852,0,0,0,11.841,11.672h.16A12.022,12.022,0,0,0,259.3,238.67,12.218,12.218,0,0,0,247.261,226.586Z" transform="translate(-234.264 -225.624)"/>
  </g>
</svg>
