<svg xmlns="http://www.w3.org/2000/svg" width="31.985" height="36.017" viewBox="0 0 31.985 36.017">
  <g id="Group_114" data-name="Group 114" transform="translate(-391.515 -660.484)">
    <path id="Path_332" data-name="Path 332" d="M5.577.6C3.421.632,3.013,1.752,3.108,3.872c.4,8.918.516,12.515.516,12.635-.645.217-1,.578-1,1.078s.377.893,1,1.109c-.17,3.139-.206,6.177-.516,13.719-.022.964-.082,3.135,2.516,3.188s2.547-2.1,2.5-3.087c-.464-8.48-.518-13.819-.518-13.819s1.016-.062,1.016-.969-.393-1-1.016-1.219c.148-4.854.438-10.506.5-12.635S7.733.57,5.577.6Z" transform="translate(389.391 660.383)" fill="none" stroke="#000" stroke-linecap="round" stroke-width="1"/>
    <line id="Line_56" data-name="Line 56" y1="3.233" x2="4.477" transform="translate(392.999 666.767)" fill="none" stroke="#000" stroke-linejoin="round" stroke-width="1"/>
    <line id="Line_62" data-name="Line 62" y1="3.233" x2="4.477" transform="translate(392.499 684.767)" fill="none" stroke="#000" stroke-linejoin="round" stroke-width="1"/>
    <line id="Line_57" data-name="Line 57" y1="3.233" x2="4.477" transform="translate(392.999 669.267)" fill="none" stroke="#000" stroke-linejoin="round" stroke-width="1"/>
    <line id="Line_63" data-name="Line 63" y1="3.233" x2="4.5" transform="translate(392.499 687.267)" fill="none" stroke="#000" stroke-linejoin="round" stroke-width="1"/>
    <path id="Path_335" data-name="Path 335" d="M3.3,16.633H8.108" transform="translate(389.391 660.383)" fill="none" stroke="#000" stroke-width="1"/>
    <path id="Path_336" data-name="Path 336" d="M3.107,18.6h5" transform="translate(389.391 660.383)" fill="none" stroke="#000" stroke-width="1"/>
    <path id="Path_332-2" data-name="Path 332-2" d="M13.553.616C11.4.647,10.995,1.767,11.091,3.887c.4,8.918.514,12.515.514,12.635-.644.217-1,.578-1,1.078s.376.893,1,1.109c-.17,3.139-.206,6.177-.514,13.719-.022.964-.082,3.135,2.509,3.188s2.54-2.1,2.5-3.087c-.463-8.48-.517-13.819-.517-13.819s1.013-.062,1.013-.969-.392-1-1.013-1.219c.147-4.854.437-10.506.5-12.635S15.7.585,13.553.616Z" transform="translate(389.391 660.383)" fill="none" stroke="#000" stroke-linecap="round" stroke-width="1"/>
    <line id="Line_56-2" data-name="Line 56-2" y1="3.233" x2="4.462" transform="translate(400.984 666.783)" fill="none" stroke="#000" stroke-linejoin="round" stroke-width="1"/>
    <line id="Line_62-2" data-name="Line 62-2" y1="3.233" x2="4.462" transform="translate(400.484 684.783)" fill="none" stroke="#000" stroke-linejoin="round" stroke-width="1"/>
    <line id="Line_57-2" data-name="Line 57-2" y1="3.233" x2="4.462" transform="translate(400.984 669.283)" fill="none" stroke="#000" stroke-linejoin="round" stroke-width="1"/>
    <line id="Line_63-2" data-name="Line 63-2" y1="3.233" x2="4.484" transform="translate(400.484 687.283)" fill="none" stroke="#000" stroke-linejoin="round" stroke-width="1"/>
    <path id="Path_335-2" data-name="Path 335-2" d="M11.28,16.649h4.8" transform="translate(389.391 660.383)" fill="none" stroke="#000" stroke-width="1"/>
    <path id="Path_336-2" data-name="Path 336-2" d="M11.092,18.617h4.985" transform="translate(389.391 660.383)" fill="none" stroke="#000" stroke-width="1"/>
    <path id="Path_333" data-name="Path 333" d="M31.617,1.609a.94.94,0,0,0-.893-.985.763.763,0,0,0-.107,0,.94.94,0,0,0-1,.877.954.954,0,0,0,0,.107V6.516a.968.968,0,0,0,.817,1.1,1.021,1.021,0,0,0,.183.01A.969.969,0,0,0,31.626,6.7a1,1,0,0,0-.009-.182Z" transform="translate(389.391 660.383)" fill="none" stroke="#000" stroke-linejoin="round" stroke-width="1"/>
    <path id="Path_334" data-name="Path 334" d="M33.609,31.625a2.985,2.985,0,1,0-5.969,0Z" transform="translate(389.391 660.383)" fill="none" stroke="#000" stroke-linejoin="round" stroke-width="1"/>
    <line id="Line_60" data-name="Line 60" y1="21" transform="translate(420.008 667.992)" fill="none" stroke="#000" stroke-linejoin="round" stroke-width="1"/>
    <line id="Line_61" data-name="Line 61" y2="3.86" transform="translate(420.008 692.132)" fill="none" stroke="#000" stroke-linecap="round" stroke-linejoin="round" stroke-width="1"/>
    <path id="Path_333-2" data-name="Path 333-2" d="M23.617,1.609a.94.94,0,0,0-.893-.985.763.763,0,0,0-.107,0,.94.94,0,0,0-1,.877.954.954,0,0,0,0,.107V6.516a.968.968,0,0,0,.817,1.1,1.021,1.021,0,0,0,.183.01A.969.969,0,0,0,23.626,6.7a1,1,0,0,0-.009-.182Z" transform="translate(389.391 660.383)" fill="none" stroke="#000" stroke-linejoin="round" stroke-width="1"/>
    <path id="Path_334-2" data-name="Path 334-2" d="M25.609,31.625a2.985,2.985,0,1,0-5.969,0Z" transform="translate(389.391 660.383)" fill="none" stroke="#000" stroke-linejoin="round" stroke-width="1"/>
    <line id="Line_60-2" data-name="Line 60-2" y1="21" transform="translate(412.008 667.992)" fill="none" stroke="#000" stroke-linejoin="round" stroke-width="1"/>
    <line id="Line_61-2" data-name="Line 61-2" y2="3.766" transform="translate(412.008 692.226)" fill="none" stroke="#000" stroke-linecap="round" stroke-linejoin="round" stroke-width="1"/>
  </g>
</svg>
