<svg xmlns="http://www.w3.org/2000/svg" width="15.974" height="10" viewBox="0 0 15.974 10">
  <path id="Path_426" data-name="Path 426" d="M19.539,26.949l0,0a15.478,15.478,0,0,0-.559-3.888,8.284,8.284,0,0,0-1.823-3.49,2.4,2.4,0,0,0-1.608-.674H7.6a2.547,2.547,0,0,0-1.659.674,8.062,8.062,0,0,0-1.7,3.49,15.1,15.1,0,0,0-.655,3.754,1.74,1.74,0,0,0,.034.569c.006.036.012.071.02.107s.013.042.02.064a1.807,1.807,0,0,0,3.129.7c.18-.214,1.345-1.424,1.943-2.139a.769.769,0,0,1,.492-.216s3.478,0,4.793,0a.616.616,0,0,1,.433.24c.438.481,1.7,1.88,1.9,2.116a1.814,1.814,0,0,0,3.2-1.174C19.552,27.034,19.542,26.993,19.539,26.949Zm-8.975-4.054h-1v1a.5.5,0,0,1-1,0v-1h-1a.5.5,0,1,1,0-1h1v-1a.5.5,0,0,1,1,0v1h1a.5.5,0,1,1,0,1Zm4.484.5a1,1,0,1,1,1-1A1,1,0,0,1,15.048,23.395Z" transform="translate(-3.577 -18.895)"/>
</svg>
