<svg xmlns="http://www.w3.org/2000/svg" width="36" height="36" viewBox="0 0 36 36">
  <g id="Group_113" data-name="Group 113" transform="translate(-119 -657)">
    <g id="Group_105" data-name="Group 105" transform="translate(119 657.021)">
      <path id="Path_382" data-name="Path 382" d="M3.6,19.6a2.175,2.175,0,0,1,3,0l2.6,2.2a.483.483,0,0,0,.7,0,.428.428,0,0,0-.1-.7L7.2,18.9A2.723,2.723,0,0,0,5.1,18,3.073,3.073,0,0,0,2,21.1V30a2,2,0,0,0,4,0V22.5a.472.472,0,0,0-.5-.5.472.472,0,0,0-.5.5V30a.945.945,0,0,1-1,1,.945.945,0,0,1-1-1V21.2A2.111,2.111,0,0,1,3.6,19.6Z" transform="translate(0 -0.221)"/>
      <path id="Path_383" data-name="Path 383" d="M15.959,27.2,20.9,32.1a2.42,2.42,0,0,0,1.3.5,2.02,2.02,0,0,0,1.4-.5s1.391-1.306,2-1.9a1.479,1.479,0,0,0,.1-1.9,1.546,1.546,0,0,0-1.5-.4l-1.491.4L19,24.6a4.018,4.018,0,0,0-2.338-1.4h-4a.5.5,0,0,0,0,1h4a3.186,3.186,0,0,1,1.638,1l3.909,3.9c.1.1.4.2.5.1,0,0,1.363-.422,1.791-.5s.772.313.5.7a26.633,26.633,0,0,1-2,1.9,1.01,1.01,0,0,1-.791.338.958.958,0,0,1-.7-.3L16.359,26.3c-.1-.1-.2-.1-.4-.1h-5.8a8.131,8.131,0,0,1-2.812-.341s-.422-.125-.622.075a.5.5,0,0,0,.134.666c.1.1.8.6,3.3.6Z" transform="translate(0.041 -0.221)"/>
      <path id="Path_384" data-name="Path 384" d="M32.2,27.7C30,27.1,22.6,25,22.6,25l-.3,1s7.5,2.1,9.6,2.7c.6.2.877.275,1,.7s-.2.7-.5,1l-3.8,4.1a1.816,1.816,0,0,1-1.4.6,3.75,3.75,0,0,1-1.1-.1l-7.7-2.2a3.051,3.051,0,0,1-1.3-1,2.756,2.756,0,0,0-3-.6,1.3,1.3,0,0,1-1.9-.8,1.78,1.78,0,0,0-2.4-.7.806.806,0,0,1-.9-.3.574.574,0,0,0-.7-.2.574.574,0,0,0-.2.7,1.812,1.812,0,0,0,2.2.7c.4-.2.826-.281,1.1.3a2.365,2.365,0,0,0,3.2,1.3,1.669,1.669,0,0,1,1.8.3,3.524,3.524,0,0,0,1.8,1.3L25.8,36a5.212,5.212,0,0,0,1.4.2,2.878,2.878,0,0,0,2.1-.9l3.8-4.1a2.347,2.347,0,0,0,.8-2A1.932,1.932,0,0,0,32.2,27.7Z" transform="translate(0.098 -0.221)"/>
      <path id="Path_385" data-name="Path 385" d="M9.505,19.064h2.212a.764.764,0,0,0,.4-.2L14.732,16c.1-.1.8-.7,1.307-.1.5.5-.3,1.5-.4,1.5l-.1.1L8.7,24.2a.482.482,0,0,0,0,.7.655.655,0,0,0,.8,0l6.534-6.4,2.212,2.2c.1.1.2.1.4.1a.371.371,0,0,0,.3-.1L27,14.7c.2-.2.3-.5.1-.7a.5.5,0,0,0-.7-.1l-7.741,5.7-1.91-1.9L26.9,7.8a.482.482,0,0,0,0-.7.488.488,0,0,0-.7,0L17.145,16a1.656,1.656,0,0,0-.708-1.092c-.609-.469-1.705-.108-2.308.292l-.6-.6,5.328-6.8a.482.482,0,0,0,0-.7.5.5,0,0,0-.7.1l-5.629,7.2a.626.626,0,0,0,0,.6l.9,1-1.91,2.064H9.505a.5.5,0,1,0,0,1Z" transform="translate(0 -0.085)"/>
      <path id="Path_386" data-name="Path 386" d="M7.861,13.947h0a1.838,1.838,0,0,1-.491,1.375,1.949,1.949,0,0,1-1.277.589H5.8a2.2,2.2,0,0,1-1.769-.982.491.491,0,0,0-.786.589A3.192,3.192,0,0,0,5.8,16.992a2.808,2.808,0,0,0,2.358-.982,3.262,3.262,0,0,0,.688-2.063v-.2A3,3,0,0,0,5.8,11a2.752,2.752,0,0,0-2.862,2.024H.479A.443.443,0,0,0,0,13.5a.49.49,0,0,0,.491.448ZM5.8,11.982a1.864,1.864,0,0,1,1.756,1.041H4.017A1.755,1.755,0,0,1,5.8,11.982Z" transform="translate(0 -0.013)"/>
      <path id="Path_387" data-name="Path 387" d="M18.5,6A8.5,8.5,0,0,0,21,5.5,7.082,7.082,0,0,1,23.6,5a10.3,10.3,0,0,1,4.6,1c.3.1.5,0,.7-.3.1-.3,0-.5-.3-.7a12.407,12.407,0,0,0-5-1,6.742,6.742,0,0,0-3,.5,6.477,6.477,0,0,1-2.1.5,2.1,2.1,0,0,1-1.1-.4A1.922,1.922,0,0,1,17,3.4a1.606,1.606,0,0,1,.5-1.1c1.3-1.2,5.1-2,9.6-.6h0a6.8,6.8,0,0,1,3.4,6.2,14.282,14.282,0,0,1-2.1,6.3,3.34,3.34,0,0,0,1,4.2,3,3,0,0,0,1.8.6,3.151,3.151,0,0,0,2.2-1c2.1-2.2,2.4-4.8,2.5-7,.1-4.3-3.1-7.9-6.3-9.3-5.8-2.8-11-1.7-12.8-.1A2.5,2.5,0,0,0,16,3.4a2.875,2.875,0,0,0,.7,1.8A2.5,2.5,0,0,0,18.5,6ZM35,10.9c-.1,3-.8,4.8-2.2,6.4a1.938,1.938,0,0,1-2.7.3,2.278,2.278,0,0,1-.8-2.9A15.623,15.623,0,0,0,31.5,8a7.6,7.6,0,0,0-1.6-5.1C32.5,4.3,35.1,7.4,35,10.9Z" transform="translate(0.098)"/>
    </g>
  </g>
</svg>
